2016-11-09 13:34:00 : GETTING REVENUE : 2016-11-09 to 2016-11-09
2016-11-09 13:34:09 : GETTING REVENUE :  to 
2016-11-09 13:38:17 : GETTING REVENUE : 2016-11-09 to 2016-11-09
2016-11-09 13:39:32 : GETTING REVENUE : 2016-11-09 to 2016-11-09
2016-11-09 13:39:47 : GETTING REVENUE : 2016-11-07 to 2016-11-07
2016-11-09 13:40:47 : GETTING REVENUE : 2016-11-08 to 2016-11-08
2016-11-09 13:48:27 : GETTING REVENUE : 2016-11-09 to 2016-11-09
2016-11-09 13:48:31 : GETTING REVENUE : 1970-01-01 to 1970-01-01
2016-11-09 13:49:08 : GETTING REVENUE : 2016-11-09 to 2016-11-09
2016-11-09 13:59:53 : GETTING REVENUE : 2016-11-09 to 2016-11-09
2016-11-09 14:00:14 : GETTING REVENUE : 2016-11-01 to 2016-11-09
2016-11-09 14:00:53 : GETTING REVENUE : 2015-11-01 to 2015-11-31
2016-11-09 14:01:36 : GETTING REVENUE : 2015-12-01 to 2015-12-31
2016-11-09 14:01:59 : GETTING REVENUE : 2016-01-01 to 2016-01-31
2016-11-09 14:02:13 : GETTING REVENUE : 2016-02-01 to 2016-02-31
2016-11-09 14:02:31 : GETTING REVENUE : 2016-03-01 to 2016-03-31
2016-11-09 14:03:20 : GETTING REVENUE : 2016-04-01 to 2016-04-31
2016-11-09 14:03:42 : GETTING REVENUE : 2016-05-01 to 2016-05-31
2016-11-09 14:03:52 : GETTING REVENUE : 2016-06-01 to 2016-06-31
2016-11-09 14:04:20 : GETTING REVENUE : 2016-07-01 to 2016-07-31
2016-11-09 14:05:58 : GETTING REVENUE : 2016-11-09 to 2016-11-09
2016-11-09 14:06:11 : GETTING REVENUE : 2016-11-01 to 2016-11-09
2016-11-09 14:06:16 : GETTING REVENUE : 2015-11-01 to 2015-11-31
2016-11-09 14:06:28 : GETTING REVENUE : 2015-12-01 to 2015-12-31
2016-11-09 14:06:43 : GETTING REVENUE : 2016-01-01 to 2016-01-31
2016-11-09 14:07:07 : GETTING REVENUE : 2016-02-01 to 2016-02-31
2016-11-09 14:07:24 : GETTING REVENUE : 2016-03-01 to 2016-03-31
2016-11-09 14:08:11 : GETTING REVENUE : 2016-04-01 to 2016-04-31
2016-11-09 14:08:46 : GETTING REVENUE : 2016-05-01 to 2016-05-31
2016-11-09 14:09:03 : GETTING REVENUE : 2016-06-01 to 2016-06-31
2016-11-09 14:09:32 : GETTING REVENUE : 2016-07-01 to 2016-07-31
2016-11-09 14:11:12 : GETTING REVENUE : 2016-08-01 to 2016-08-31
2016-11-09 14:12:23 : GETTING REVENUE : 2016-09-01 to 2016-09-31
2016-11-09 14:14:17 : GETTING REVENUE : 2016-10-01 to 2016-10-31
2016-11-09 17:58:36 : GETTING REVENUE : 2016-11-09 to 2016-11-09
2016-11-09 17:58:36 : GETTING REVENUE : 2016-11-01 to 2016-11-09
2016-11-09 17:58:36 : GETTING REVENUE : 2015-11-01 to 2015-11-31
2016-11-09 17:58:36 : GETTING REVENUE : 2015-12-01 to 2015-12-31
2016-11-09 17:58:36 : GETTING REVENUE : 2016-01-01 to 2016-01-31
2016-11-09 17:58:36 : GETTING REVENUE : 2016-02-01 to 2016-02-31
2016-11-09 17:58:36 : GETTING REVENUE : 2016-03-01 to 2016-03-31
2016-11-09 17:58:37 : GETTING REVENUE : 2016-04-01 to 2016-04-31
2016-11-09 17:58:37 : GETTING REVENUE : 2016-05-01 to 2016-05-31
2016-11-09 17:58:37 : GETTING REVENUE : 2016-06-01 to 2016-06-31
2016-11-09 17:58:37 : GETTING REVENUE : 2016-07-01 to 2016-07-31
2016-11-09 17:58:37 : GETTING REVENUE : 2016-08-01 to 2016-08-31
2016-11-09 17:58:37 : GETTING REVENUE : 2016-09-01 to 2016-09-31
2016-11-09 17:58:37 : GETTING REVENUE : 2016-10-01 to 2016-10-31
2016-11-09 17:58:37 : GETTING API CALLS INFO
2016-11-09 17:58:37 : GETTING API Summery : 2016-11-08 17:58:37 to 2016-11-09 17:58:37
2016-11-09 17:58:37 : GETTING API INFO : 2016-11-08 17:58:37 to 2016-11-09 17:58:37
2016-11-09 17:58:37 : GETTING API INFO : 2016-11-08 17:58:37 to 2016-11-09 17:58:37
2016-11-09 17:58:37 : GETTING API INFO : 2016-11-08 17:58:37 to 2016-11-09 17:58:37
2016-11-09 17:58:37 : GETTING API INFO : 2016-11-08 17:58:37 to 2016-11-09 17:58:37
2016-11-09 17:58:37 : GETTING API INFO : 2016-11-08 17:58:37 to 2016-11-09 17:58:37
2016-11-09 17:58:37 : GETTING API INFO : 2016-11-08 17:58:37 to 2016-11-09 17:58:37
2016-11-09 17:58:37 : GETTING AMAPPS CALLS INFO
2016-11-09 17:58:37 : GETTING SUBS
2016-11-09 18:08:27 : GETTING REVENUE : 2016-11-09 to 2016-11-09
2016-11-09 18:08:30 : GETTING REVENUE : 2016-11-01 to 2016-11-09
2016-11-09 18:08:36 : GETTING REVENUE : 2015-11-01 to 2015-11-31
2016-11-09 18:08:55 : GETTING REVENUE : 2015-12-01 to 2015-12-31
2016-11-09 18:09:16 : GETTING REVENUE : 2016-01-01 to 2016-01-31
2016-11-09 18:09:32 : GETTING REVENUE : 2016-02-01 to 2016-02-31
2016-11-09 18:09:55 : GETTING REVENUE : 2016-03-01 to 2016-03-31
2016-11-09 18:10:45 : GETTING REVENUE : 2016-04-01 to 2016-04-31
2016-11-09 18:11:15 : GETTING REVENUE : 2016-05-01 to 2016-05-31
2016-11-09 18:11:40 : GETTING REVENUE : 2016-06-01 to 2016-06-31
2016-11-09 18:12:18 : GETTING REVENUE : 2016-07-01 to 2016-07-31
2016-11-09 18:14:14 : GETTING REVENUE : 2016-08-01 to 2016-08-31
2016-11-09 18:16:01 : GETTING REVENUE : 2016-09-01 to 2016-09-31
2016-11-09 18:18:26 : GETTING REVENUE : 2016-11-09 to 2016-11-09
2016-11-09 18:18:27 : GETTING REVENUE : 2016-11-01 to 2016-11-09
2016-11-09 18:18:27 : GETTING REVENUE : 2015-11-01 to 2015-11-31
2016-11-09 18:18:27 : GETTING REVENUE : 2015-12-01 to 2015-12-31
2016-11-09 18:18:27 : GETTING REVENUE : 2016-01-01 to 2016-01-31
2016-11-09 18:18:27 : GETTING REVENUE : 2016-02-01 to 2016-02-31
2016-11-09 18:18:27 : GETTING REVENUE : 2016-03-01 to 2016-03-31
2016-11-09 18:18:27 : GETTING REVENUE : 2016-04-01 to 2016-04-31
2016-11-09 18:18:27 : GETTING REVENUE : 2016-05-01 to 2016-05-31
2016-11-09 18:18:27 : GETTING REVENUE : 2016-06-01 to 2016-06-31
2016-11-09 18:18:27 : GETTING REVENUE : 2016-07-01 to 2016-07-31
2016-11-09 18:18:27 : GETTING REVENUE : 2016-08-01 to 2016-08-31
2016-11-09 18:18:27 : GETTING REVENUE : 2016-09-01 to 2016-09-31
2016-11-09 18:18:27 : GETTING REVENUE : 2016-10-01 to 2016-10-31
2016-11-09 18:19:55 : GETTING REVENUE : 2016-11-01 to 2016-11-09
2016-11-09 18:20:51 : GETTING REVENUE : 2015-11-01 to 2015-11-31
2016-11-09 18:21:38 : GETTING REVENUE : 2016-11-01 to 2016-11-09
2016-11-09 18:21:54 : GETTING REVENUE : 2015-11-01 to 2015-11-31
2016-11-09 18:21:54 : GETTING REVENUE : 2015-12-01 to 2015-12-31
2016-11-09 18:21:54 : GETTING REVENUE : 2016-01-01 to 2016-01-31
2016-11-09 18:21:54 : GETTING REVENUE : 2016-02-01 to 2016-02-31
2016-11-09 18:21:54 : GETTING REVENUE : 2016-03-01 to 2016-03-31
2016-11-09 18:21:54 : GETTING REVENUE : 2016-04-01 to 2016-04-31
2016-11-09 18:21:54 : GETTING REVENUE : 2016-05-01 to 2016-05-31
2016-11-09 18:21:54 : GETTING REVENUE : 2016-06-01 to 2016-06-31
2016-11-09 18:21:54 : GETTING REVENUE : 2016-07-01 to 2016-07-31
2016-11-09 18:21:54 : GETTING REVENUE : 2016-08-01 to 2016-08-31
2016-11-09 18:21:54 : GETTING REVENUE : 2016-09-01 to 2016-09-31
2016-11-09 18:21:54 : GETTING REVENUE : 2016-10-01 to 2016-10-31
2016-11-09 18:23:08 : GETTING REVENUE : 2016-11-01 to 2016-11-09
2016-11-09 18:23:08 : GETTING REVENUE : 2015-11-01 to 2015-11-31
2016-11-09 18:23:08 : GETTING REVENUE : 2015-12-01 to 2015-12-31
2016-11-09 18:23:08 : GETTING REVENUE : 2016-01-01 to 2016-01-31
2016-11-09 18:23:09 : GETTING REVENUE : 2016-02-01 to 2016-02-31
2016-11-09 18:23:09 : GETTING REVENUE : 2016-03-01 to 2016-03-31
2016-11-09 18:23:09 : GETTING REVENUE : 2016-04-01 to 2016-04-31
2016-11-09 18:23:09 : GETTING REVENUE : 2016-05-01 to 2016-05-31
2016-11-09 18:23:09 : GETTING REVENUE : 2016-06-01 to 2016-06-31
2016-11-09 18:23:09 : GETTING REVENUE : 2016-07-01 to 2016-07-31
2016-11-09 18:23:09 : GETTING REVENUE : 2016-08-01 to 2016-08-31
2016-11-09 18:23:09 : GETTING REVENUE : 2016-09-01 to 2016-09-31
2016-11-09 18:23:09 : GETTING REVENUE : 2016-10-01 to 2016-10-31
2016-11-09 18:23:26 : GETTING API CALLS INFO
2016-11-09 18:23:27 : GETTING API Summery : 2016-11-08 18:23:27 to 2016-11-09 18:23:27
2016-11-09 18:23:28 : GETTING API INFO : 2016-11-08 18:23:28 to 2016-11-09 18:23:28
2016-11-09 18:23:28 : GETTING API INFO : 2016-11-08 18:23:28 to 2016-11-09 18:23:28
2016-11-09 18:23:28 : GETTING API INFO : 2016-11-08 18:23:28 to 2016-11-09 18:23:28
2016-11-09 18:23:28 : GETTING API INFO : 2016-11-08 18:23:28 to 2016-11-09 18:23:28
2016-11-09 18:23:28 : GETTING API INFO : 2016-11-08 18:23:28 to 2016-11-09 18:23:28
2016-11-09 18:23:28 : GETTING API INFO : 2016-11-08 18:23:28 to 2016-11-09 18:23:28
2016-11-09 18:23:29 : GETTING AMAPPS CALLS INFO
2016-11-09 18:23:49 : GETTING SUBS
2016-11-09 18:24:06 : GETTING REVENUE : 2016-11-09 to 2016-11-09
2016-11-09 18:24:06 : GETTING REVENUE : 2016-11-01 to 2016-11-09
2016-11-09 18:24:06 : GETTING REVENUE : 2015-11-01 to 2015-11-31
2016-11-09 18:24:06 : GETTING REVENUE : 2015-12-01 to 2015-12-31
2016-11-09 18:24:06 : GETTING REVENUE : 2016-01-01 to 2016-01-31
2016-11-09 18:24:06 : GETTING REVENUE : 2016-02-01 to 2016-02-31
2016-11-09 18:24:06 : GETTING REVENUE : 2016-03-01 to 2016-03-31
2016-11-09 18:24:06 : GETTING REVENUE : 2016-04-01 to 2016-04-31
2016-11-09 18:24:06 : GETTING REVENUE : 2016-05-01 to 2016-05-31
2016-11-09 18:24:06 : GETTING REVENUE : 2016-06-01 to 2016-06-31
2016-11-09 18:24:06 : GETTING REVENUE : 2016-07-01 to 2016-07-31
2016-11-09 18:24:06 : GETTING REVENUE : 2016-08-01 to 2016-08-31
2016-11-09 18:24:06 : GETTING REVENUE : 2016-09-01 to 2016-09-31
2016-11-09 18:24:06 : GETTING REVENUE : 2016-10-01 to 2016-10-31
2016-11-09 18:24:34 : GETTING REVENUE : 2016-11-01 to 2016-11-09
2016-11-09 18:24:34 : GETTING REVENUE : 2015-11-01 to 2015-11-31
2016-11-09 18:24:34 : GETTING REVENUE : 2015-12-01 to 2015-12-31
2016-11-09 18:24:34 : GETTING REVENUE : 2016-01-01 to 2016-01-31
2016-11-09 18:24:34 : GETTING REVENUE : 2016-02-01 to 2016-02-31
2016-11-09 18:24:34 : GETTING REVENUE : 2016-03-01 to 2016-03-31
2016-11-09 18:24:34 : GETTING REVENUE : 2016-04-01 to 2016-04-31
2016-11-09 18:24:34 : GETTING REVENUE : 2016-05-01 to 2016-05-31
2016-11-09 18:24:34 : GETTING REVENUE : 2016-06-01 to 2016-06-31
2016-11-09 18:24:34 : GETTING REVENUE : 2016-07-01 to 2016-07-31
2016-11-09 18:24:34 : GETTING REVENUE : 2016-08-01 to 2016-08-31
2016-11-09 18:24:34 : GETTING REVENUE : 2016-09-01 to 2016-09-31
2016-11-09 18:24:34 : GETTING REVENUE : 2016-10-01 to 2016-10-31
2016-11-09 18:24:35 : GETTING API CALLS INFO
2016-11-09 18:24:35 : GETTING AMAPPS CALLS INFO
2016-11-09 18:24:35 : GETTING SUBS
2016-11-09 18:26:25 : GETTING REVENUE : 2016-11-01 to 2016-11-09
2016-11-09 18:26:56 : GETTING REVENUE : 2015-11-01 to 2015-11-31
2016-11-09 18:27:09 : GETTING REVENUE : 2015-12-01 to 2015-12-31
2016-11-09 18:27:27 : GETTING REVENUE : 2016-01-01 to 2016-01-31
2016-11-09 18:27:45 : GETTING REVENUE : 2016-02-01 to 2016-02-31
2016-11-09 18:28:00 : GETTING REVENUE : 2016-03-01 to 2016-03-31
2016-11-09 18:28:52 : GETTING REVENUE : 2016-04-01 to 2016-04-31
2016-11-09 18:29:11 : GETTING REVENUE : 2016-05-01 to 2016-05-31
2016-11-09 18:29:31 : GETTING REVENUE : 2016-06-01 to 2016-06-31
2016-11-09 18:30:00 : GETTING REVENUE : 2016-07-01 to 2016-07-31
2016-11-09 18:31:52 : GETTING REVENUE : 2016-08-01 to 2016-08-31
2016-11-09 18:33:38 : GETTING REVENUE : 2016-09-01 to 2016-09-31
2016-11-09 18:35:20 : GETTING REVENUE : 2016-10-01 to 2016-10-31
2016-11-09 18:39:49 : GETTING API CALLS INFO
2016-11-09 18:39:50 : GETTING API Summery : 2016-11-08 18:39:50 to 2016-11-09 18:39:50
2016-11-09 18:39:57 : GETTING API INFO : 2016-11-08 18:39:57 to 2016-11-09 18:39:57
2016-11-09 18:39:58 : GETTING API INFO : 2016-11-08 18:39:58 to 2016-11-09 18:39:58
2016-11-09 18:39:58 : GETTING API INFO : 2016-11-08 18:39:58 to 2016-11-09 18:39:58
2016-11-09 18:39:58 : GETTING API INFO : 2016-11-08 18:39:58 to 2016-11-09 18:39:58
2016-11-09 18:39:58 : GETTING API INFO : 2016-11-08 18:39:58 to 2016-11-09 18:39:58
2016-11-09 18:39:58 : GETTING API INFO : 2016-11-08 18:39:58 to 2016-11-09 18:39:58
2016-11-09 18:40:36 : GETTING AMAPPS CALLS INFO
2016-11-09 18:40:39 : GETTING SUBS
2016-11-09 18:41:06 : GETTING REVENUE : 2016-11-09 to 2016-11-09
2016-11-09 18:41:07 : GETTING REVENUE : 2016-11-01 to 2016-11-09
2016-11-09 18:45:30 : GETTING REVENUE : 2016-11-01 to 2016-11-09
2016-11-09 18:46:19 : GETTING REVENUE : 2016-11-09 to 2016-11-09
2016-11-09 18:46:23 : GETTING REVENUE : 2016-11-01 to 2016-11-09
2016-11-09 18:46:39 : GETTING API CALLS INFO
2016-11-09 18:46:42 : GETTING API Summery : 2016-11-08 18:46:42 to 2016-11-09 18:46:42
2016-11-09 18:49:56 : GETTING API CALLS INFO
2016-11-09 18:49:57 : GETTING API Summery : 2016-11-08 18:49:57 to 2016-11-09 18:49:57
2016-11-09 18:50:31 : GETTING API INFO : 2016-11-08 18:50:31 to 2016-11-09 18:50:31
2016-11-09 18:50:31 : GETTING API INFO : 2016-11-08 18:50:31 to 2016-11-09 18:50:31
2016-11-09 18:50:32 : GETTING API INFO : 2016-11-08 18:50:32 to 2016-11-09 18:50:32
2016-11-09 18:50:32 : GETTING API INFO : 2016-11-08 18:50:32 to 2016-11-09 18:50:32
2016-11-09 18:50:32 : GETTING API INFO : 2016-11-08 18:50:32 to 2016-11-09 18:50:32
2016-11-09 18:50:32 : GETTING API INFO : 2016-11-08 18:50:32 to 2016-11-09 18:50:32
2016-11-09 18:51:42 : GETTING AMAPPS CALLS INFO
2016-11-09 18:51:42 : GETTING SUBS
2016-11-09 18:51:53 : GETTING REVENUE : 2016-11-09 to 2016-11-09
2016-11-09 18:52:03 : GETTING REVENUE : 2016-11-01 to 2016-11-09
2016-11-09 18:52:24 : GETTING API CALLS INFO
2016-11-09 18:52:53 : GETTING API INFO : 2016-11-08 18:52:53 to 2016-11-09 18:52:53
2016-11-09 18:56:41 : GETTING API INFO : 2016-11-08 18:56:41 to 2016-11-09 18:56:41
2016-11-09 19:00:05 : GETTING REVENUE : 2016-11-09 to 2016-11-09
2016-11-09 19:00:05 : GETTING REVENUE : 2016-11-01 to 2016-11-09
2016-11-09 19:00:12 : GETTING API CALLS INFO
2016-11-09 19:00:12 : GETTING API Summery : 2016-11-08 19:00:12 to 2016-11-09 19:00:12
2016-11-09 19:00:29 : GETTING API INFO : 2016-11-08 19:00:29 to 2016-11-09 19:00:29
2016-11-09 19:01:07 : GETTING API INFO : 2016-11-08 19:01:07 to 2016-11-09 19:01:07
2016-11-09 19:01:39 : GETTING API CALLS INFO
2016-11-09 19:01:43 : GETTING API INFO : 2016-11-08 19:01:43 to 2016-11-09 19:01:43
2016-11-09 19:01:57 : GETTING API INFO : 2016-11-08 19:01:57 to 2016-11-09 19:01:57
2016-11-09 19:02:01 : GETTING API INFO : 2016-11-08 19:02:01 to 2016-11-09 19:02:01
2016-11-09 19:02:01 : GETTING API INFO : 2016-11-08 19:02:01 to 2016-11-09 19:02:01
2016-11-09 19:02:01 : GETTING API INFO : 2016-11-08 19:02:01 to 2016-11-09 19:02:01
2016-11-09 19:02:01 : GETTING API INFO : 2016-11-08 19:02:01 to 2016-11-09 19:02:01
2016-11-09 19:02:02 : GETTING AMAPPS CALLS INFO
2016-11-09 19:02:02 : GETTING SUBS
2016-11-09 19:02:07 : GETTING API CALLS INFO
2016-11-09 19:02:07 : GETTING AMAPPS CALLS INFO
2016-11-09 19:02:07 : GETTING SUBS
2016-11-09 19:03:16 : GETTING API CALLS INFO
2016-11-09 19:03:16 : GETTING AMAPPS CALLS INFO
2016-11-09 19:03:16 : GETTING SUBS
2016-11-09 19:04:54 : GETTING API CALLS INFO
2016-11-09 19:04:54 : GETTING AMAPPS CALLS INFO
2016-11-09 19:04:54 : GETTING SUBS
2016-11-09 19:04:55 : GETTING API CALLS INFO
2016-11-09 19:04:55 : GETTING AMAPPS CALLS INFO
2016-11-09 19:04:55 : GETTING SUBS
2016-11-09 19:04:56 : GETTING API CALLS INFO
2016-11-09 19:04:56 : GETTING AMAPPS CALLS INFO
2016-11-09 19:04:56 : GETTING SUBS
2016-11-09 19:09:45 : GETTING REVENUE : 2016-11-09 to 2016-11-09
2016-11-09 19:09:45 : GETTING REVENUE : 2016-11-01 to 2016-11-09
2016-11-09 19:09:51 : GETTING API CALLS INFO
2016-11-09 19:09:51 : GETTING API Summery : 2016-11-08 19:09:51 to 2016-11-09 19:09:51
2016-11-09 19:09:52 : GETTING API INFO : 2016-11-08 19:09:52 to 2016-11-09 19:09:52
2016-11-09 19:09:53 : GETTING API INFO : 2016-11-08 19:09:53 to 2016-11-09 19:09:53
2016-11-09 19:09:53 : GETTING API INFO : 2016-11-08 19:09:53 to 2016-11-09 19:09:53
2016-11-09 19:09:54 : GETTING API INFO : 2016-11-08 19:09:54 to 2016-11-09 19:09:54
2016-11-09 19:09:54 : GETTING API INFO : 2016-11-08 19:09:54 to 2016-11-09 19:09:54
2016-11-09 19:09:54 : GETTING API INFO : 2016-11-08 19:09:54 to 2016-11-09 19:09:54
2016-11-09 19:09:54 : GETTING AMAPPS CALLS INFO
2016-11-09 19:09:54 : GETTING SUBS
2016-11-09 22:27:58 : GETTING REVENUE : 2016-11-09 to 2016-11-09
2016-11-09 22:27:58 : GETTING REVENUE : 2016-11-01 to 2016-11-09
2016-11-09 22:27:58 : GETTING API CALLS INFO
2016-11-09 22:27:58 : GETTING API Summery : 2016-11-08 22:27:58 to 2016-11-09 22:27:58
2016-11-09 22:27:58 : GETTING API INFO : 2016-11-08 22:27:58 to 2016-11-09 22:27:58
2016-11-09 22:27:58 : GETTING API INFO : 2016-11-08 22:27:58 to 2016-11-09 22:27:58
2016-11-09 22:27:58 : GETTING API INFO : 2016-11-08 22:27:58 to 2016-11-09 22:27:58
2016-11-09 22:27:58 : GETTING API INFO : 2016-11-08 22:27:58 to 2016-11-09 22:27:58
2016-11-09 22:27:58 : GETTING API INFO : 2016-11-08 22:27:58 to 2016-11-09 22:27:58
2016-11-09 22:27:58 : GETTING API INFO : 2016-11-08 22:27:58 to 2016-11-09 22:27:58
2016-11-09 22:27:58 : GETTING AMAPPS CALLS INFO
2016-11-09 22:27:58 : GETTING SUBS
2016-11-09 23:02:39 : GETTING REVENUE : 2016-11-09 to 2016-11-09
2016-11-09 23:02:40 : GETTING REVENUE : 2016-11-01 to 2016-11-09
2016-11-09 23:02:47 : GETTING API CALLS INFO
2016-11-09 23:02:47 : GETTING API Summery : 2016-11-08 23:02:47 to 2016-11-09 23:02:47
2016-11-09 23:02:49 : GETTING API INFO : 2016-11-08 23:02:49 to 2016-11-09 23:02:49
2016-11-09 23:02:49 : GETTING API INFO : 2016-11-08 23:02:49 to 2016-11-09 23:02:49
2016-11-09 23:02:50 : GETTING API INFO : 2016-11-08 23:02:50 to 2016-11-09 23:02:50
2016-11-09 23:02:50 : GETTING API INFO : 2016-11-08 23:02:50 to 2016-11-09 23:02:50
2016-11-09 23:02:50 : GETTING API INFO : 2016-11-08 23:02:50 to 2016-11-09 23:02:50
2016-11-09 23:02:51 : GETTING API INFO : 2016-11-08 23:02:51 to 2016-11-09 23:02:51
2016-11-09 23:02:51 : GETTING AMAPPS CALLS INFO
2016-11-09 23:02:51 : GETTING SUBS
2016-11-09 23:09:48 : GETTING REVENUE : 2016-11-09 to 2016-11-09
2016-11-09 23:09:49 : GETTING REVENUE : 2016-11-01 to 2016-11-09
2016-11-09 23:09:56 : GETTING API CALLS INFO
2016-11-09 23:09:56 : GETTING API Summery : 2016-11-08 23:09:56 to 2016-11-09 23:09:56
2016-11-09 23:09:57 : GETTING API INFO : 2016-11-08 23:09:57 to 2016-11-09 23:09:57
2016-11-09 23:09:57 : GETTING API INFO : 2016-11-08 23:09:57 to 2016-11-09 23:09:57
2016-11-09 23:09:58 : GETTING API INFO : 2016-11-08 23:09:58 to 2016-11-09 23:09:58
2016-11-09 23:09:58 : GETTING API INFO : 2016-11-08 23:09:58 to 2016-11-09 23:09:58
2016-11-09 23:09:58 : GETTING API INFO : 2016-11-08 23:09:58 to 2016-11-09 23:09:58
2016-11-09 23:09:59 : GETTING API INFO : 2016-11-08 23:09:59 to 2016-11-09 23:09:59
2016-11-09 23:09:59 : GETTING AMAPPS CALLS INFO
2016-11-09 23:09:59 : GETTING SUBS
2016-11-10 10:03:18 : GETTING REVENUE : 2016-11-10 to 2016-11-10
2016-11-10 10:03:18 : GETTING REVENUE : 2016-11-09 to 2016-11-09
2016-11-10 10:03:36 : GETTING REVENUE : 2016-11-01 to 2016-11-10
2016-11-10 10:05:07 : GETTING API CALLS INFO
2016-11-10 10:05:08 : GETTING API Summery : 2016-11-09 10:05:08 to 2016-11-10 10:05:08
2016-11-10 10:05:14 : GETTING API INFO : 2016-11-09 10:05:14 to 2016-11-10 10:05:14
2016-11-10 10:05:15 : GETTING API INFO : 2016-11-09 10:05:15 to 2016-11-10 10:05:15
2016-11-10 10:05:16 : GETTING API INFO : 2016-11-09 10:05:16 to 2016-11-10 10:05:16
2016-11-10 10:05:16 : GETTING API INFO : 2016-11-09 10:05:16 to 2016-11-10 10:05:16
2016-11-10 10:05:16 : GETTING API INFO : 2016-11-09 10:05:16 to 2016-11-10 10:05:16
2016-11-10 10:05:17 : GETTING API INFO : 2016-11-09 10:05:17 to 2016-11-10 10:05:17
2016-11-10 10:05:18 : GETTING AMAPPS CALLS INFO
2016-11-10 10:05:20 : GETTING SUBS
2016-11-10 10:20:13 : GETTING REVENUE : 2016-11-10 to 2016-11-10
2016-11-10 10:20:14 : GETTING API CALLS INFO
2016-11-10 10:20:14 : GETTING API Summery : 2016-11-09 10:20:14 to 2016-11-10 10:20:14
2016-11-10 10:20:15 : GETTING API INFO : 2016-11-09 10:20:15 to 2016-11-10 10:20:15
2016-11-10 10:20:16 : GETTING API INFO : 2016-11-09 10:20:16 to 2016-11-10 10:20:16
2016-11-10 10:20:17 : GETTING API INFO : 2016-11-09 10:20:17 to 2016-11-10 10:20:17
2016-11-10 10:20:17 : GETTING API INFO : 2016-11-09 10:20:17 to 2016-11-10 10:20:17
2016-11-10 10:20:18 : GETTING API INFO : 2016-11-09 10:20:18 to 2016-11-10 10:20:18
2016-11-10 10:20:18 : GETTING API INFO : 2016-11-09 10:20:18 to 2016-11-10 10:20:18
2016-11-10 10:20:19 : GETTING AMAPPS CALLS INFO
2016-11-10 10:20:19 : GETTING SUBS
